My personal investment portfolio performance · Portfolio website for Chushi Guo
…
Summarized monthly returns since 2017-01-01 for each of the stocks and SPY; min, max, median, mean, SD.

summarise_monthly_returns <- myStocks_returns_monthly %>%
  dplyr::group_by(symbol) %>%
  dplyr::filter(date >= as.Date("2017-01-01")) %>%
  summarise(min_return = min(monthly_returns), max_return = max(monthly_returns), median_return = median(monthly_returns), mean_return = mean(monthly_returns), std_return = sd(monthly_returns))

summarise_monthly_returns

## # A tibble: 31 x 6
##    symbol min_return max_return median_return mean_return std_return
##    <chr>       <dbl>      <dbl>         <dbl>       <dbl>      <dbl>
##  1 AAPL       0.0357     0.177         0.151       0.128      0.0552
##  2 AMGN      -0.0333     0.180         0.0394      0.0503     0.0702
##  3 AXP       -0.0506     0.0988        0.0216      0.0247     0.0562
##  4 BA        -0.138      0.257        -0.0101      0.0251     0.143 
##  5 CAT        0.0121     0.109         0.0557      0.0575     0.0343
##  6 CRM       -0.0209     0.391         0.0755      0.114      0.144 
##  7 CSCO      -0.104      0.128         0.0307      0.0249     0.0827
##  8 CVX       -0.0593     0.270         0.0231      0.0460     0.116 
##  9 DIS       -0.0494     0.159         0.0666      0.0536     0.0849
## 10 DOW       -0.0375     0.255         0.0634      0.0817     0.104 
## # … with 21 more rows
…
